{
    "count": 71,
    "page": 1,
    "first": 1,
    "last": 1,
    "hits": 1,
    "carrier": 0,
    "pageCount": 71,
    "Items": [
      {
        "itemName": "★宅配便送料無料★【USB ヒートベスト M L LL LLL XL 2XL 3XL ヒーターベスト 電熱ベスト 加熱ベスト ヒーター内蔵 ヒーター ベスト アウター モバイルバッテリー 加熱 電気ベスト インナーベスト 防寒対策 レディース メンズ 男女兼用】電熱ヒートベスト スリムタイプ",
        "catchcopy": "ヒーター付きベスト ポータブル あったか あったかグッズ 温かい 暖かい 冬 軽い 軽量 薄い 女性 男性 ユニセックス 防寒着 インナー ジャケット チョッキ ジャケット 重ね着 中綿",
        "itemCode": "corsage:10001643",
        "itemPrice": 3180,
        "itemPriceBaseField": "item_price_min3",
        "itemPriceMax1": 3180,
        "itemPriceMax2": 3180,
        "itemPriceMax3": 3180,
        "itemPriceMin1": 3180,
        "itemPriceMin2": 3180,
        "itemPriceMin3": 3180,
        "itemCaption": "■サイズ ■使用方法 ■商品詳細 特徴 寒い冬を暖かく過ごす♪モバイルバッテリーから電源が取れるUSB電源式の電熱ベスト！ ベスト内に内蔵されたヒーターでまるで使い捨てカイロのようにじんわりあったか♪360度身体を包み込むように温めます。寒い冬の冷え対策にピッタリ！ お家の中だけでなく、通勤やお出かけ、アウトドア、ウィンタースポーツ、サイクリング、ツーリング、釣り、ゴルフ、雪かき、農作業、ガーデニング、スポーツ観戦など様々なシーンで大活躍♪ ポータブルタイプで場所を選ばずどこでも使う事ができます。 ボタン1つの簡単操作！モバイルバッテリーを接続して、胸元のボタンを押し続けるだけで即加熱。さらにボタンを押すごとに温度も3段階で切り替え。 約5分〜10分で最高温度になります。 温度によってボタンのLEDカラーが変わるので暗闇でもひと目で確認できます。 使い捨てカイロと異なり、モバイルバッテリーを充電すれば繰り返し使えるのでお財布にもやさしくエコ。 10000mAhのバッテリーで約5時間使用が可能です。 薄くて軽いスリム設計で重ね着もしやすい♪ 内側が遠赤外線放射繊維で作られているため熱を逃がしにくく、身体を芯から温めます。 汚れてしまってもモバイルバッテリーを取り外してそのまま洗濯・手洗いが可能です。（※強く絞らないでください） 仕様 温度： 　・高/約65℃（±5℃） 　・中/約55℃（±5℃） 　・低/約45℃（±5℃） ヒーター：5箇所 入力：5V/2A サイズ S/M/L/XL/2XL/3XL カラー ・ブラック/黒/acbk 素材 ポリエステル、ネオプレン、ナイロン セット内容 ・ベストのみ 製造国 中国 備考 ※平置きでのメジャー採寸です。実物と若干の誤差が出る場合がございます。 ※モバイルバッテリーは付属いたしません。 ※厚めの服の上に着た場合、暖かさを感じにくくなる可能性がございます。 ※使用時間は目安です。使用環境や使用頻度により変化する場合があります。 ※製品を洗う場合はモバイルバッテリーを取り外し、電源プラグをポケットの中に入れてください。また強く絞らないでください。 ※2A出力のモバイルバッテリーをご使用ください。 ※海外輸入品のため製品やパッケージに小さな傷や汚れ、へこみなどが見受けられる場合がございます。あらかじめご了承ください。 ※ご利用のモニターによって、実物と異なる色に表示される場合がございます。 ※製造時期によってデザインや仕様に若干の変更がある場合がございます。ご了承下さい。",
        "itemUrl": "https://item.rakuten.co.jp/corsage/1007-183/?rafcid=wsc_i_is_afe0eb66-19b0-4a7f-9283-4e0c76066f29",
        "shopUrl": "https://www.rakuten.co.jp/corsage/?rafcid=wsc_i_is_afe0eb66-19b0-4a7f-9283-4e0c76066f29",
        "smallImageUrls": [
          "https://thumbnail.image.rakuten.co.jp/@0_mall/corsage/cabinet/03257720/03659717/co_heatvest_s_01.jpg?_ex=64x64",
          "https://thumbnail.image.rakuten.co.jp/@0_mall/corsage/cabinet/03257720/03659717/heatvest_s_02_01-2.jpg?_ex=64x64",
          "https://thumbnail.image.rakuten.co.jp/@0_mall/corsage/cabinet/03257720/03659717/heatvest_s_02_02.jpg?_ex=64x64"
        ],
        "mediumImageUrls": [
          "https://thumbnail.image.rakuten.co.jp/@0_mall/corsage/cabinet/03257720/03659717/co_heatvest_s_01.jpg?_ex=128x128",
          "https://thumbnail.image.rakuten.co.jp/@0_mall/corsage/cabinet/03257720/03659717/heatvest_s_02_01-2.jpg?_ex=128x128",
          "https://thumbnail.image.rakuten.co.jp/@0_mall/corsage/cabinet/03257720/03659717/heatvest_s_02_02.jpg?_ex=128x128"
        ],
        "affiliateUrl": "",
        "shopAffiliateUrl": "",
        "imageFlag": 1,
        "availability": 1,
        "taxFlag": 0,
        "postageFlag": 0,
        "creditCardFlag": 1,
        "shopOfTheYearFlag": 0,
        "shipOverseasFlag": 0,
        "shipOverseasArea": "",
        "asurakuFlag": 0,
        "asurakuClosingTime": "",
        "asurakuArea": "",
        "affiliateRate": 4,
        "startTime": "",
        "endTime": "",
        "reviewCount": 0,
        "reviewAverage": 0,
        "pointRate": 1,
        "pointRateStartTime": "",
        "pointRateEndTime": "",
        "giftFlag": 0,
        "shopName": "La Chou Chou",
        "shopCode": "corsage",
        "genreId": "403890",
        "tagIds": [
          1000886,
          1003441,
          1011173,
          1013412,
          1000415,
          1000414,
          1000413,
          1000412,
          1000411,
          1000416,
          1002985,
          1002984,
          1002983,
          1002982,
          1002981,
          1002980,
          1002979,
          1001535,
          1000319,
          1000318,
          1001534,
          1000320,
          1005530
        ]
      }
    ],
    "GenreInformation": [],
    "TagInformation": []
  }